[
    {
        "openingcode": 1,
        "arms": 2,
        "widthcode": 1,
        "pipediamter": 50,
        "pipediamterinternalid": 3,
        "torque": 20,
        "csi": false,
        "wired": true,
        "name": "מטאור"
    },
    {
        "openingcode": 1,
        "arms": 2,
        "widthcode": 1,
        "pipediamter": 50,
        "pipediamterinternalid": 3,
        "torque": 20,
        "csi": true,
        "wired": true,
        "name": "מטאור"
    },
    {
        "openingcode": 1,
        "arms": 2,
        "widthcode": 1,
        "pipediamter": 50,
        "pipediamterinternalid": 3,
        "torque": 20,
        "csi": true,
        "wired": false,
        "name": "מטאור"
    },
    {
        "openingcode": 1,
        "arms": 2,
        "widthcode": 1,
        "pipediamter": 50,
        "pipediamterinternalid": 3,
        "torque": 20,
        "csi": false,
        "wired": false,
        "name": "אלטוס"
    },
    {
        "openingcode": 2,
        "arms": 2,
        "widthcode": 1,
        "pipediamter": 50,
        "pipediamterinternalid": 3,
        "torque": 20,
        "csi": false,
        "wired": true,
        "name": "מטאור"
    },
    {
        "openingcode": 2,
        "arms": 2,
        "widthcode": 1,
        "pipediamter": 50,
        "pipediamterinternalid": 3,
        "torque": 20,
        "csi": true,
        "wired": true,
        "name": "מטאור"
    },
    {
        "openingcode": 2,
        "arms": 2,
        "widthcode": 1,
        "pipediamter": 50,
        "pipediamterinternalid": 3,
        "torque": 20,
        "csi": true,
        "wired": false,
        "name": "מטאור"
    },
    {
        "openingcode": 2,
        "arms": 2,
        "widthcode": 1,
        "pipediamter": 50,
        "pipediamterinternalid": 3,
        "torque": 20,
        "csi": false,
        "wired": false,
        "name": "אלטוס"
    },
    {
        "openingcode": 1,
        "arms": 4,
        "widthcode": 2,
        "pipediamter": 50,
        "pipediamterinternalid": 3,
        "torque": 25,
        "csi": false,
        "wired": true,
        "name": "ג'ימיני"
    },
    {
        "openingcode": 2,
        "arms": 4,
        "widthcode": 2,
        "pipediamter": 50,
        "pipediamterinternalid": 3,
        "torque": 25,
        "csi": false,
        "wired": true,
        "name": "ג'ימיני"
    },
    {
        "openingcode": 1,
        "arms": 4,
        "widthcode": 2,
        "pipediamter": 50,
        "pipediamterinternalid": 3,
        "torque": 25,
        "csi": false,
        "wired": false,
        "name": "אלטוס"
    },
    {
        "openingcode": 2,
        "arms": 4,
        "widthcode": 2,
        "pipediamter": 50,
        "pipediamterinternalid": 3,
        "torque": 25,
        "csi": false,
        "wired": false,
        "name": "אלטוס"
    },
    {
        "openingcode": 3,
        "arms": 2,
        "widthcode": 1,
        "pipediamter": 50,
        "pipediamterinternalid": 3,
        "torque": 35,
        "csi": false,
        "wired": true,
        "name": "אפולו"
    },
    {
        "openingcode": 1,
        "arms": 6,
        "widthcode": 3,
        "pipediamter": 50,
        "pipediamterinternalid": 3,
        "torque": 35,
        "csi": false,
        "wired": true,
        "name": "אפולו"
    },
    {
        "openingcode": 2,
        "arms": 6,
        "widthcode": 3,
        "pipediamter": 50,
        "pipediamterinternalid": 3,
        "torque": 35,
        "csi": false,
        "wired": true,
        "name": "אפולו"
    },
    {
        "openingcode": 3,
        "arms": 2,
        "widthcode": 1,
        "pipediamter": 50,
        "pipediamterinternalid": 3,
        "torque": 35,
        "csi": false,
        "wired": false,
        "name": "אלטוס"
    },
    {
        "openingcode": 1,
        "arms": 6,
        "widthcode": 3,
        "pipediamter": 50,
        "pipediamterinternalid": 3,
        "torque": 35,
        "csi": false,
        "wired": false,
        "name": "אלטוס"
    },
    {
        "openingcode": 2,
        "arms": 6,
        "widthcode": 3,
        "pipediamter": 50,
        "pipediamterinternalid": 3,
        "torque": 35,
        "csi": false,
        "wired": false,
        "name": "אלטוס"
    },
    {
        "openingcode": 3,
        "arms": 2,
        "widthcode": 1,
        "pipediamter": 50,
        "pipediamterinternalid": 3,
        "torque": 35,
        "csi": false,
        "wired": false,
        "name": "אוראה"
    },
    {
        "openingcode": 1,
        "arms": 6,
        "widthcode": 3,
        "pipediamter": 50,
        "pipediamterinternalid": 3,
        "torque": 35,
        "csi": false,
        "wired": false,
        "name": "אוראה"
    },
    {
        "openingcode": 2,
        "arms": 6,
        "widthcode": 3,
        "pipediamter": 50,
        "pipediamterinternalid": 3,
        "torque": 35,
        "csi": false,
        "wired": false,
        "name": "אוראה"
    },
    {
        "openingcode": 3,
        "arms": 4,
        "widthcode": 2,
        "pipediamter": 50,
        "pipediamterinternalid": 3,
        "torque": 40,
        "csi": false,
        "wired": true,
        "name": "מרינר"
    },
    {
        "openingcode": 1,
        "arms": 8,
        "widthcode": 4,
        "pipediamter": 50,
        "pipediamterinternalid": 3,
        "torque": 40,
        "csi": false,
        "wired": true,
        "name": "מרינר"
    },
    {
        "openingcode": 2,
        "arms": 8,
        "widthcode": 4,
        "pipediamter": 50,
        "pipediamterinternalid": 3,
        "torque": 40,
        "csi": false,
        "wired": true,
        "name": "מרינר"
    },
    {
        "openingcode": 3,
        "arms": 4,
        "widthcode": 2,
        "pipediamter": 50,
        "pipediamterinternalid": 3,
        "torque": 40,
        "csi": true,
        "wired": true,
        "name": "מרינר"
    },
    {
        "openingcode": 1,
        "arms": 8,
        "widthcode": 4,
        "pipediamter": 50,
        "pipediamterinternalid": 3,
        "torque": 40,
        "csi": true,
        "wired": true,
        "name": "מרינר"
    },
    {
        "openingcode": 2,
        "arms": 8,
        "widthcode": 4,
        "pipediamter": 50,
        "pipediamterinternalid": 3,
        "torque": 40,
        "csi": true,
        "wired": true,
        "name": "מרינר"
    },
    {
        "openingcode": 3,
        "arms": 4,
        "widthcode": 2,
        "pipediamter": 50,
        "pipediamterinternalid": 3,
        "torque": 40,
        "csi": true,
        "wired": false,
        "name": "מרינר"
    },
    {
        "openingcode": 1,
        "arms": 8,
        "widthcode": 4,
        "pipediamter": 50,
        "pipediamterinternalid": 3,
        "torque": 40,
        "csi": true,
        "wired": false,
        "name": "מרינר"
    },
    {
        "openingcode": 2,
        "arms": 8,
        "widthcode": 4,
        "pipediamter": 50,
        "pipediamterinternalid": 3,
        "torque": 40,
        "csi": true,
        "wired": false,
        "name": "מרינר"
    },
    {
        "openingcode": 3,
        "arms": 4,
        "widthcode": 2,
        "pipediamter": 50,
        "pipediamterinternalid": 3,
        "torque": 40,
        "csi": false,
        "wired": false,
        "name": "אלטוס"
    },
    {
        "openingcode": 1,
        "arms": 8,
        "widthcode": 4,
        "pipediamter": 50,
        "pipediamterinternalid": 3,
        "torque": 40,
        "csi": false,
        "wired": false,
        "name": "אלטוס"
    },
    {
        "openingcode": 2,
        "arms": 8,
        "widthcode": 4,
        "pipediamter": 50,
        "pipediamterinternalid": 3,
        "torque": 40,
        "csi": false,
        "wired": false,
        "name": "אלטוס"
    },
    {
        "openingcode": 3,
        "arms": 4,
        "widthcode": 2,
        "pipediamter": 50,
        "pipediamterinternalid": 3,
        "torque": 40,
        "csi": false,
        "wired": false,
        "name": "אוראה"
    },
    {
        "openingcode": 1,
        "arms": 8,
        "widthcode": 4,
        "pipediamter": 50,
        "pipediamterinternalid": 3,
        "torque": 40,
        "csi": false,
        "wired": false,
        "name": "אוראה"
    },
    {
        "openingcode": 2,
        "arms": 8,
        "widthcode": 4,
        "pipediamter": 50,
        "pipediamterinternalid": 3,
        "torque": 40,
        "csi": false,
        "wired": false,
        "name": "אוראה"
    },
    {
        "openingcode": 2,
        "arms": 2,
        "widthcode": 1,
        "pipediamter": 63,
        "pipediamterinternalid": 5,
        "torque": 25,
        "csi": false,
        "wired": true,
        "name": "ג'ימיני"
    },
    {
        "openingcode": 1,
        "arms": 4,
        "widthcode": 1,
        "pipediamter": 63,
        "pipediamterinternalid": 5,
        "torque": 25,
        "csi": false,
        "wired": true,
        "name": "ג'ימיני"
    },
    {
        "openingcode": 1,
        "arms": 4,
        "widthcode": 2,
        "pipediamter": 63,
        "pipediamterinternalid": 5,
        "torque": 25,
        "csi": false,
        "wired": true,
        "name": "ג'ימיני"
    },
    {
        "openingcode": 2,
        "arms": 2,
        "widthcode": 1,
        "pipediamter": 63,
        "pipediamterinternalid": 5,
        "torque": 25,
        "csi": false,
        "wired": false,
        "name": "אלטוס"
    },
    {
        "openingcode": 1,
        "arms": 4,
        "widthcode": 1,
        "pipediamter": 63,
        "pipediamterinternalid": 5,
        "torque": 25,
        "csi": false,
        "wired": false,
        "name": "אלטוס"
    },
    {
        "openingcode": 1,
        "arms": 4,
        "widthcode": 2,
        "pipediamter": 63,
        "pipediamterinternalid": 5,
        "torque": 25,
        "csi": false,
        "wired": false,
        "name": "אלטוס"
    },
    {
        "openingcode": 2,
        "arms": 4,
        "widthcode": 2,
        "pipediamter": 63,
        "pipediamterinternalid": 5,
        "torque": 35,
        "csi": false,
        "wired": true,
        "name": "אפולו"
    },
    {
        "openingcode": 1,
        "arms": 6,
        "widthcode": 3,
        "pipediamter": 63,
        "pipediamterinternalid": 5,
        "torque": 35,
        "csi": false,
        "wired": true,
        "name": "אפולו"
    },
    {
        "openingcode": 2,
        "arms": 4,
        "widthcode": 2,
        "pipediamter": 63,
        "pipediamterinternalid": 5,
        "torque": 35,
        "csi": false,
        "wired": false,
        "name": "אלטוס"
    },
    {
        "openingcode": 1,
        "arms": 6,
        "widthcode": 3,
        "pipediamter": 63,
        "pipediamterinternalid": 5,
        "torque": 35,
        "csi": false,
        "wired": false,
        "name": "אלטוס"
    },
    {
        "openingcode": 2,
        "arms": 4,
        "widthcode": 2,
        "pipediamter": 63,
        "pipediamterinternalid": 5,
        "torque": 35,
        "csi": false,
        "wired": false,
        "name": "אוראה"
    },
    {
        "openingcode": 1,
        "arms": 6,
        "widthcode": 3,
        "pipediamter": 63,
        "pipediamterinternalid": 5,
        "torque": 35,
        "csi": false,
        "wired": false,
        "name": "אוראה"
    },
    {
        "openingcode": 3,
        "arms": 2,
        "widthcode": 3,
        "pipediamter": 63,
        "pipediamterinternalid": 5,
        "torque": 40,
        "csi": false,
        "wired": true,
        "name": "מרינר"
    },
    {
        "openingcode": 3,
        "arms": 2,
        "widthcode": 3,
        "pipediamter": 63,
        "pipediamterinternalid": 5,
        "torque": 40,
        "csi": true,
        "wired": true,
        "name": "מרינר"
    },
    {
        "openingcode": 3,
        "arms": 2,
        "widthcode": 3,
        "pipediamter": 63,
        "pipediamterinternalid": 5,
        "torque": 40,
        "csi": true,
        "wired": false,
        "name": "מרינר"
    },
    {
        "openingcode": 3,
        "arms": 2,
        "widthcode": 3,
        "pipediamter": 63,
        "pipediamterinternalid": 5,
        "torque": 40,
        "csi": false,
        "wired": false,
        "name": "אלטוס"
    },
    {
        "openingcode": 3,
        "arms": 2,
        "widthcode": 3,
        "pipediamter": 63,
        "pipediamterinternalid": 5,
        "torque": 40,
        "csi": false,
        "wired": false,
        "name": "אוראה"
    },
    {
        "openingcode": 3,
        "arms": 4,
        "widthcode": 1,
        "pipediamter": 63,
        "pipediamterinternalid": 5,
        "torque": 55,
        "csi": false,
        "wired": true,
        "name": "אוריון"
    },
    {
        "openingcode": 4,
        "arms": 2,
        "widthcode": 1,
        "pipediamter": 63,
        "pipediamterinternalid": 5,
        "torque": 55,
        "csi": false,
        "wired": true,
        "name": "אוריון"
    },
    {
        "openingcode": 2,
        "arms": 6,
        "widthcode": 3,
        "pipediamter": 63,
        "pipediamterinternalid": 5,
        "torque": 55,
        "csi": false,
        "wired": true,
        "name": "אוריון"
    },
    {
        "openingcode": 1,
        "arms": 8,
        "widthcode": 4,
        "pipediamter": 63,
        "pipediamterinternalid": 5,
        "torque": 55,
        "csi": false,
        "wired": true,
        "name": "אוריון"
    },
    {
        "openingcode": 3,
        "arms": 4,
        "widthcode": 1,
        "pipediamter": 63,
        "pipediamterinternalid": 5,
        "torque": 55,
        "csi": true,
        "wired": true,
        "name": "אוריון"
    },
    {
        "openingcode": 4,
        "arms": 2,
        "widthcode": 1,
        "pipediamter": 63,
        "pipediamterinternalid": 5,
        "torque": 55,
        "csi": true,
        "wired": true,
        "name": "אוריון"
    },
    {
        "openingcode": 2,
        "arms": 6,
        "widthcode": 3,
        "pipediamter": 63,
        "pipediamterinternalid": 5,
        "torque": 55,
        "csi": true,
        "wired": true,
        "name": "אוריון"
    },
    {
        "openingcode": 1,
        "arms": 8,
        "widthcode": 4,
        "pipediamter": 63,
        "pipediamterinternalid": 5,
        "torque": 55,
        "csi": true,
        "wired": true,
        "name": "אוריון"
    },
    {
        "openingcode": 3,
        "arms": 4,
        "widthcode": 1,
        "pipediamter": 63,
        "pipediamterinternalid": 5,
        "torque": 55,
        "csi": false,
        "wired": false,
        "name": "אלטוס"
    },
    {
        "openingcode": 4,
        "arms": 2,
        "widthcode": 1,
        "pipediamter": 63,
        "pipediamterinternalid": 5,
        "torque": 55,
        "csi": false,
        "wired": false,
        "name": "אלטוס"
    },
    {
        "openingcode": 2,
        "arms": 6,
        "widthcode": 3,
        "pipediamter": 63,
        "pipediamterinternalid": 5,
        "torque": 55,
        "csi": false,
        "wired": false,
        "name": "אלטוס"
    },
    {
        "openingcode": 1,
        "arms": 8,
        "widthcode": 4,
        "pipediamter": 63,
        "pipediamterinternalid": 5,
        "torque": 55,
        "csi": false,
        "wired": false,
        "name": "אלטוס"
    },
    {
        "openingcode": 3,
        "arms": 4,
        "widthcode": 1,
        "pipediamter": 63,
        "pipediamterinternalid": 5,
        "torque": 55,
        "csi": false,
        "wired": false,
        "name": "אוראה"
    },
    {
        "openingcode": 4,
        "arms": 2,
        "widthcode": 1,
        "pipediamter": 63,
        "pipediamterinternalid": 5,
        "torque": 55,
        "csi": false,
        "wired": false,
        "name": "אוראה"
    },
    {
        "openingcode": 2,
        "arms": 6,
        "widthcode": 3,
        "pipediamter": 63,
        "pipediamterinternalid": 5,
        "torque": 55,
        "csi": false,
        "wired": false,
        "name": "אוראה"
    },
    {
        "openingcode": 1,
        "arms": 8,
        "widthcode": 4,
        "pipediamter": 63,
        "pipediamterinternalid": 5,
        "torque": 55,
        "csi": false,
        "wired": false,
        "name": "אוראה"
    },
    {
        "openingcode": 2,
        "arms": 8,
        "widthcode": 4,
        "pipediamter": 63,
        "pipediamterinternalid": 5,
        "torque": 70,
        "csi": false,
        "wired": true,
        "name": "אנטרס"
    },
    {
        "openingcode": 1,
        "arms": 10,
        "widthcode": 5,
        "pipediamter": 63,
        "pipediamterinternalid": 5,
        "torque": 70,
        "csi": false,
        "wired": true,
        "name": "אנטרס"
    },
    {
        "openingcode": 2,
        "arms": 8,
        "widthcode": 4,
        "pipediamter": 63,
        "pipediamterinternalid": 5,
        "torque": 70,
        "csi": true,
        "wired": true,
        "name": "אנטרס"
    },
    {
        "openingcode": 1,
        "arms": 10,
        "widthcode": 5,
        "pipediamter": 63,
        "pipediamterinternalid": 5,
        "torque": 70,
        "csi": true,
        "wired": true,
        "name": "אנטרס"
    },
    {
        "openingcode": 2,
        "arms": 8,
        "widthcode": 4,
        "pipediamter": 63,
        "pipediamterinternalid": 5,
        "torque": 70,
        "csi": false,
        "wired": false,
        "name": "אלטוס"
    },
    {
        "openingcode": 1,
        "arms": 10,
        "widthcode": 5,
        "pipediamter": 63,
        "pipediamterinternalid": 5,
        "torque": 70,
        "csi": false,
        "wired": false,
        "name": "אלטוס"
    },
    {
        "openingcode": 2,
        "arms": 8,
        "widthcode": 4,
        "pipediamter": 63,
        "pipediamterinternalid": 5,
        "torque": 70,
        "csi": false,
        "wired": false,
        "name": "אוראה"
    },
    {
        "openingcode": 1,
        "arms": 10,
        "widthcode": 5,
        "pipediamter": 63,
        "pipediamterinternalid": 5,
        "torque": 70,
        "csi": false,
        "wired": false,
        "name": "אוראה"
    },
    {
        "openingcode": 3,
        "arms": 6,
        "widthcode": 2,
        "pipediamter": 63,
        "pipediamterinternalid": 5,
        "torque": 85,
        "csi": false,
        "wired": true,
        "name": "יופיטר"
    },
    {
        "openingcode": 4,
        "arms": 4,
        "widthcode": 2,
        "pipediamter": 63,
        "pipediamterinternalid": 5,
        "torque": 85,
        "csi": false,
        "wired": true,
        "name": "יופיטר"
    },
    {
        "openingcode": 2,
        "arms": 10,
        "widthcode": 5,
        "pipediamter": 63,
        "pipediamterinternalid": 5,
        "torque": 85,
        "csi": false,
        "wired": true,
        "name": "יופיטר"
    },
    {
        "openingcode": 1,
        "arms": 12,
        "widthcode": 6,
        "pipediamter": 63,
        "pipediamterinternalid": 5,
        "torque": 85,
        "csi": false,
        "wired": true,
        "name": "יופיטר"
    },
    {
        "openingcode": 3,
        "arms": 6,
        "widthcode": 2,
        "pipediamter": 63,
        "pipediamterinternalid": 5,
        "torque": 85,
        "csi": true,
        "wired": true,
        "name": "יופיטר"
    },
    {
        "openingcode": 4,
        "arms": 4,
        "widthcode": 2,
        "pipediamter": 63,
        "pipediamterinternalid": 5,
        "torque": 85,
        "csi": true,
        "wired": true,
        "name": "יופיטר"
    },
    {
        "openingcode": 2,
        "arms": 10,
        "widthcode": 5,
        "pipediamter": 63,
        "pipediamterinternalid": 5,
        "torque": 85,
        "csi": true,
        "wired": true,
        "name": "יופיטר"
    },
    {
        "openingcode": 1,
        "arms": 12,
        "widthcode": 6,
        "pipediamter": 63,
        "pipediamterinternalid": 5,
        "torque": 85,
        "csi": true,
        "wired": true,
        "name": "יופיטר"
    },
    {
        "openingcode": 3,
        "arms": 6,
        "widthcode": 2,
        "pipediamter": 63,
        "pipediamterinternalid": 5,
        "torque": 85,
        "csi": false,
        "wired": false,
        "name": "אלטוס"
    },
    {
        "openingcode": 4,
        "arms": 4,
        "widthcode": 2,
        "pipediamter": 63,
        "pipediamterinternalid": 5,
        "torque": 85,
        "csi": false,
        "wired": false,
        "name": "אלטוס"
    },
    {
        "openingcode": 2,
        "arms": 10,
        "widthcode": 5,
        "pipediamter": 63,
        "pipediamterinternalid": 5,
        "torque": 85,
        "csi": false,
        "wired": false,
        "name": "אלטוס"
    },
    {
        "openingcode": 1,
        "arms": 12,
        "widthcode": 6,
        "pipediamter": 63,
        "pipediamterinternalid": 5,
        "torque": 85,
        "csi": false,
        "wired": false,
        "name": "אלטוס"
    },
    {
        "openingcode": 3,
        "arms": 8,
        "widthcode": 3,
        "pipediamter": 63,
        "pipediamterinternalid": 5,
        "torque": 100,
        "csi": false,
        "wired": true,
        "name": "טיטן"
    },
    {
        "openingcode": 4,
        "arms": 6,
        "widthcode": 3,
        "pipediamter": 63,
        "pipediamterinternalid": 5,
        "torque": 100,
        "csi": false,
        "wired": true,
        "name": "טיטן"
    },
    {
        "openingcode": 2,
        "arms": 12,
        "widthcode": 6,
        "pipediamter": 63,
        "pipediamterinternalid": 5,
        "torque": 100,
        "csi": false,
        "wired": true,
        "name": "טיטן"
    },
    {
        "openingcode": 3,
        "arms": 8,
        "widthcode": 3,
        "pipediamter": 63,
        "pipediamterinternalid": 5,
        "torque": 100,
        "csi": true,
        "wired": true,
        "name": "טיטן"
    },
    {
        "openingcode": 4,
        "arms": 6,
        "widthcode": 3,
        "pipediamter": 63,
        "pipediamterinternalid": 5,
        "torque": 100,
        "csi": true,
        "wired": true,
        "name": "טיטן"
    },
    {
        "openingcode": 2,
        "arms": 12,
        "widthcode": 6,
        "pipediamter": 63,
        "pipediamterinternalid": 5,
        "torque": 100,
        "csi": true,
        "wired": true,
        "name": "טיטן"
    },
    {
        "openingcode": 2,
        "arms": 2,
        "widthcode": 1,
        "pipediamter": 70,
        "pipediamterinternalid": 5,
        "torque": 25,
        "csi": false,
        "wired": true,
        "name": "ג'ימיני"
    },
    {
        "openingcode": 1,
        "arms": 4,
        "widthcode": 1,
        "pipediamter": 70,
        "pipediamterinternalid": 5,
        "torque": 25,
        "csi": false,
        "wired": true,
        "name": "ג'ימיני"
    },
    {
        "openingcode": 1,
        "arms": 4,
        "widthcode": 2,
        "pipediamter": 70,
        "pipediamterinternalid": 5,
        "torque": 25,
        "csi": false,
        "wired": true,
        "name": "ג'ימיני"
    },
    {
        "openingcode": 2,
        "arms": 2,
        "widthcode": 1,
        "pipediamter": 70,
        "pipediamterinternalid": 5,
        "torque": 25,
        "csi": false,
        "wired": false,
        "name": "אלטוס"
    },
    {
        "openingcode": 1,
        "arms": 4,
        "widthcode": 1,
        "pipediamter": 70,
        "pipediamterinternalid": 5,
        "torque": 25,
        "csi": false,
        "wired": false,
        "name": "אלטוס"
    },
    {
        "openingcode": 1,
        "arms": 4,
        "widthcode": 2,
        "pipediamter": 70,
        "pipediamterinternalid": 5,
        "torque": 25,
        "csi": false,
        "wired": false,
        "name": "אלטוס"
    },
    {
        "openingcode": 2,
        "arms": 4,
        "widthcode": 2,
        "pipediamter": 70,
        "pipediamterinternalid": 5,
        "torque": 35,
        "csi": false,
        "wired": true,
        "name": "אפולו"
    },
    {
        "openingcode": 1,
        "arms": 6,
        "widthcode": 3,
        "pipediamter": 70,
        "pipediamterinternalid": 5,
        "torque": 35,
        "csi": false,
        "wired": true,
        "name": "אפולו"
    },
    {
        "openingcode": 2,
        "arms": 4,
        "widthcode": 2,
        "pipediamter": 70,
        "pipediamterinternalid": 5,
        "torque": 35,
        "csi": false,
        "wired": false,
        "name": "אלטוס"
    },
    {
        "openingcode": 1,
        "arms": 6,
        "widthcode": 3,
        "pipediamter": 70,
        "pipediamterinternalid": 5,
        "torque": 35,
        "csi": false,
        "wired": false,
        "name": "אלטוס"
    },
    {
        "openingcode": 2,
        "arms": 4,
        "widthcode": 2,
        "pipediamter": 70,
        "pipediamterinternalid": 5,
        "torque": 35,
        "csi": false,
        "wired": false,
        "name": "אוראה"
    },
    {
        "openingcode": 1,
        "arms": 6,
        "widthcode": 3,
        "pipediamter": 70,
        "pipediamterinternalid": 5,
        "torque": 35,
        "csi": false,
        "wired": false,
        "name": "אוראה"
    },
    {
        "openingcode": 3,
        "arms": 2,
        "widthcode": 4,
        "pipediamter": 70,
        "pipediamterinternalid": 5,
        "torque": 40,
        "csi": false,
        "wired": true,
        "name": "מרינר"
    },
    {
        "openingcode": 3,
        "arms": 2,
        "widthcode": 4,
        "pipediamter": 70,
        "pipediamterinternalid": 5,
        "torque": 40,
        "csi": true,
        "wired": true,
        "name": "מרינר"
    },
    {
        "openingcode": 3,
        "arms": 2,
        "widthcode": 4,
        "pipediamter": 70,
        "pipediamterinternalid": 5,
        "torque": 40,
        "csi": true,
        "wired": false,
        "name": "מרינר"
    },
    {
        "openingcode": 3,
        "arms": 2,
        "widthcode": 4,
        "pipediamter": 70,
        "pipediamterinternalid": 5,
        "torque": 40,
        "csi": false,
        "wired": false,
        "name": "אלטוס"
    },
    {
        "openingcode": 3,
        "arms": 2,
        "widthcode": 4,
        "pipediamter": 70,
        "pipediamterinternalid": 5,
        "torque": 40,
        "csi": false,
        "wired": false,
        "name": "אוראה"
    },
    {
        "openingcode": 3,
        "arms": 4,
        "widthcode": 1,
        "pipediamter": 70,
        "pipediamterinternalid": 5,
        "torque": 55,
        "csi": false,
        "wired": true,
        "name": "אוריון"
    },
    {
        "openingcode": 4,
        "arms": 2,
        "widthcode": 1,
        "pipediamter": 70,
        "pipediamterinternalid": 5,
        "torque": 55,
        "csi": false,
        "wired": true,
        "name": "אוריון"
    },
    {
        "openingcode": 2,
        "arms": 6,
        "widthcode": 3,
        "pipediamter": 70,
        "pipediamterinternalid": 5,
        "torque": 55,
        "csi": false,
        "wired": true,
        "name": "אוריון"
    },
    {
        "openingcode": 1,
        "arms": 8,
        "widthcode": 4,
        "pipediamter": 70,
        "pipediamterinternalid": 5,
        "torque": 55,
        "csi": false,
        "wired": true,
        "name": "אוריון"
    },
    {
        "openingcode": 3,
        "arms": 4,
        "widthcode": 1,
        "pipediamter": 70,
        "pipediamterinternalid": 5,
        "torque": 55,
        "csi": true,
        "wired": true,
        "name": "אוריון"
    },
    {
        "openingcode": 4,
        "arms": 2,
        "widthcode": 1,
        "pipediamter": 70,
        "pipediamterinternalid": 5,
        "torque": 55,
        "csi": true,
        "wired": true,
        "name": "אוריון"
    },
    {
        "openingcode": 2,
        "arms": 6,
        "widthcode": 3,
        "pipediamter": 70,
        "pipediamterinternalid": 5,
        "torque": 55,
        "csi": true,
        "wired": true,
        "name": "אוריון"
    },
    {
        "openingcode": 1,
        "arms": 8,
        "widthcode": 4,
        "pipediamter": 70,
        "pipediamterinternalid": 5,
        "torque": 55,
        "csi": true,
        "wired": true,
        "name": "אוריון"
    },
    {
        "openingcode": 3,
        "arms": 4,
        "widthcode": 1,
        "pipediamter": 70,
        "pipediamterinternalid": 5,
        "torque": 55,
        "csi": false,
        "wired": false,
        "name": "אלטוס"
    },
    {
        "openingcode": 4,
        "arms": 2,
        "widthcode": 1,
        "pipediamter": 70,
        "pipediamterinternalid": 5,
        "torque": 55,
        "csi": false,
        "wired": false,
        "name": "אלטוס"
    },
    {
        "openingcode": 2,
        "arms": 6,
        "widthcode": 3,
        "pipediamter": 70,
        "pipediamterinternalid": 5,
        "torque": 55,
        "csi": false,
        "wired": false,
        "name": "אלטוס"
    },
    {
        "openingcode": 1,
        "arms": 8,
        "widthcode": 4,
        "pipediamter": 70,
        "pipediamterinternalid": 5,
        "torque": 55,
        "csi": false,
        "wired": false,
        "name": "אלטוס"
    },
    {
        "openingcode": 3,
        "arms": 4,
        "widthcode": 1,
        "pipediamter": 70,
        "pipediamterinternalid": 5,
        "torque": 55,
        "csi": false,
        "wired": false,
        "name": "אוראה"
    },
    {
        "openingcode": 4,
        "arms": 2,
        "widthcode": 1,
        "pipediamter": 70,
        "pipediamterinternalid": 5,
        "torque": 55,
        "csi": false,
        "wired": false,
        "name": "אוראה"
    },
    {
        "openingcode": 2,
        "arms": 6,
        "widthcode": 3,
        "pipediamter": 70,
        "pipediamterinternalid": 5,
        "torque": 55,
        "csi": false,
        "wired": false,
        "name": "אוראה"
    },
    {
        "openingcode": 1,
        "arms": 8,
        "widthcode": 4,
        "pipediamter": 70,
        "pipediamterinternalid": 5,
        "torque": 55,
        "csi": false,
        "wired": false,
        "name": "אוראה"
    },
    {
        "openingcode": 2,
        "arms": 8,
        "widthcode": 4,
        "pipediamter": 70,
        "pipediamterinternalid": 5,
        "torque": 70,
        "csi": false,
        "wired": true,
        "name": "אנטרס"
    },
    {
        "openingcode": 1,
        "arms": 10,
        "widthcode": 5,
        "pipediamter": 70,
        "pipediamterinternalid": 5,
        "torque": 70,
        "csi": false,
        "wired": true,
        "name": "אנטרס"
    },
    {
        "openingcode": 2,
        "arms": 8,
        "widthcode": 4,
        "pipediamter": 70,
        "pipediamterinternalid": 5,
        "torque": 70,
        "csi": true,
        "wired": true,
        "name": "אנטרס"
    },
    {
        "openingcode": 1,
        "arms": 10,
        "widthcode": 5,
        "pipediamter": 70,
        "pipediamterinternalid": 5,
        "torque": 70,
        "csi": true,
        "wired": true,
        "name": "אנטרס"
    },
    {
        "openingcode": 2,
        "arms": 8,
        "widthcode": 4,
        "pipediamter": 70,
        "pipediamterinternalid": 5,
        "torque": 70,
        "csi": false,
        "wired": false,
        "name": "אלטוס"
    },
    {
        "openingcode": 1,
        "arms": 10,
        "widthcode": 5,
        "pipediamter": 70,
        "pipediamterinternalid": 5,
        "torque": 70,
        "csi": false,
        "wired": false,
        "name": "אלטוס"
    },
    {
        "openingcode": 2,
        "arms": 8,
        "widthcode": 4,
        "pipediamter": 70,
        "pipediamterinternalid": 5,
        "torque": 70,
        "csi": false,
        "wired": false,
        "name": "אוראה"
    },
    {
        "openingcode": 1,
        "arms": 10,
        "widthcode": 5,
        "pipediamter": 70,
        "pipediamterinternalid": 5,
        "torque": 70,
        "csi": false,
        "wired": false,
        "name": "אוראה"
    },
    {
        "openingcode": 3,
        "arms": 6,
        "widthcode": 2,
        "pipediamter": 70,
        "pipediamterinternalid": 5,
        "torque": 85,
        "csi": false,
        "wired": true,
        "name": "יופיטר"
    },
    {
        "openingcode": 4,
        "arms": 4,
        "widthcode": 2,
        "pipediamter": 70,
        "pipediamterinternalid": 5,
        "torque": 85,
        "csi": false,
        "wired": true,
        "name": "יופיטר"
    },
    {
        "openingcode": 2,
        "arms": 10,
        "widthcode": 5,
        "pipediamter": 70,
        "pipediamterinternalid": 5,
        "torque": 85,
        "csi": false,
        "wired": true,
        "name": "יופיטר"
    },
    {
        "openingcode": 1,
        "arms": 12,
        "widthcode": 6,
        "pipediamter": 70,
        "pipediamterinternalid": 5,
        "torque": 85,
        "csi": false,
        "wired": true,
        "name": "יופיטר"
    },
    {
        "openingcode": 3,
        "arms": 6,
        "widthcode": 2,
        "pipediamter": 70,
        "pipediamterinternalid": 5,
        "torque": 85,
        "csi": true,
        "wired": true,
        "name": "יופיטר"
    },
    {
        "openingcode": 4,
        "arms": 4,
        "widthcode": 2,
        "pipediamter": 70,
        "pipediamterinternalid": 5,
        "torque": 85,
        "csi": true,
        "wired": true,
        "name": "יופיטר"
    },
    {
        "openingcode": 2,
        "arms": 10,
        "widthcode": 5,
        "pipediamter": 70,
        "pipediamterinternalid": 5,
        "torque": 85,
        "csi": true,
        "wired": true,
        "name": "יופיטר"
    },
    {
        "openingcode": 1,
        "arms": 12,
        "widthcode": 6,
        "pipediamter": 70,
        "pipediamterinternalid": 5,
        "torque": 85,
        "csi": true,
        "wired": true,
        "name": "יופיטר"
    },
    {
        "openingcode": 3,
        "arms": 6,
        "widthcode": 2,
        "pipediamter": 70,
        "pipediamterinternalid": 5,
        "torque": 85,
        "csi": false,
        "wired": false,
        "name": "אלטוס"
    },
    {
        "openingcode": 4,
        "arms": 4,
        "widthcode": 2,
        "pipediamter": 70,
        "pipediamterinternalid": 5,
        "torque": 85,
        "csi": false,
        "wired": false,
        "name": "אלטוס"
    },
    {
        "openingcode": 2,
        "arms": 10,
        "widthcode": 5,
        "pipediamter": 70,
        "pipediamterinternalid": 5,
        "torque": 85,
        "csi": false,
        "wired": false,
        "name": "אלטוס"
    },
    {
        "openingcode": 1,
        "arms": 12,
        "widthcode": 6,
        "pipediamter": 70,
        "pipediamterinternalid": 5,
        "torque": 85,
        "csi": false,
        "wired": false,
        "name": "אלטוס"
    },
    {
        "openingcode": 3,
        "arms": 8,
        "widthcode": 3,
        "pipediamter": 70,
        "pipediamterinternalid": 5,
        "torque": 100,
        "csi": false,
        "wired": true,
        "name": "טיטן"
    },
    {
        "openingcode": 4,
        "arms": 6,
        "widthcode": 3,
        "pipediamter": 70,
        "pipediamterinternalid": 5,
        "torque": 100,
        "csi": false,
        "wired": true,
        "name": "טיטן"
    },
    {
        "openingcode": 2,
        "arms": 12,
        "widthcode": 6,
        "pipediamter": 70,
        "pipediamterinternalid": 5,
        "torque": 100,
        "csi": false,
        "wired": true,
        "name": "טיטן"
    },
    {
        "openingcode": 3,
        "arms": 8,
        "widthcode": 3,
        "pipediamter": 70,
        "pipediamterinternalid": 5,
        "torque": 100,
        "csi": true,
        "wired": true,
        "name": "טיטן"
    },
    {
        "openingcode": 4,
        "arms": 6,
        "widthcode": 3,
        "pipediamter": 70,
        "pipediamterinternalid": 5,
        "torque": 100,
        "csi": true,
        "wired": true,
        "name": "טיטן"
    },
    {
        "openingcode": 2,
        "arms": 12,
        "widthcode": 6,
        "pipediamter": 70,
        "pipediamterinternalid": 5,
        "torque": 100,
        "csi": true,
        "wired": true,
        "name": "טיטן"
    },
    {
        "openingcode": 1,
        "arms": 2,
        "widthcode": 1,
        "pipediamter": 78,
        "pipediamterinternalid": 6,
        "torque": 30,
        "csi": true,
        "wired": false,
        "name": "הליוס"
    },
    {
        "openingcode": 1,
        "arms": 4,
        "widthcode": 2,
        "pipediamter": 78,
        "pipediamterinternalid": 6,
        "torque": 40,
        "csi": false,
        "wired": true,
        "name": "מרינר"
    },
    {
        "openingcode": 1,
        "arms": 4,
        "widthcode": 2,
        "pipediamter": 78,
        "pipediamterinternalid": 6,
        "torque": 40,
        "csi": true,
        "wired": true,
        "name": "מרינר"
    },
    {
        "openingcode": 1,
        "arms": 4,
        "widthcode": 2,
        "pipediamter": 78,
        "pipediamterinternalid": 6,
        "torque": 40,
        "csi": true,
        "wired": false,
        "name": "מרינר"
    },
    {
        "openingcode": 1,
        "arms": 4,
        "widthcode": 2,
        "pipediamter": 78,
        "pipediamterinternalid": 6,
        "torque": 40,
        "csi": false,
        "wired": false,
        "name": "אלטוס"
    },
    {
        "openingcode": 1,
        "arms": 4,
        "widthcode": 2,
        "pipediamter": 78,
        "pipediamterinternalid": 6,
        "torque": 40,
        "csi": false,
        "wired": false,
        "name": "אוראה"
    },
    {
        "openingcode": 3,
        "arms": 2,
        "widthcode": 4,
        "pipediamter": 78,
        "pipediamterinternalid": 6,
        "torque": 55,
        "csi": false,
        "wired": true,
        "name": "אוריון"
    },
    {
        "openingcode": 3,
        "arms": 2,
        "widthcode": 4,
        "pipediamter": 78,
        "pipediamterinternalid": 6,
        "torque": 55,
        "csi": true,
        "wired": true,
        "name": "אוריון"
    },
    {
        "openingcode": 3,
        "arms": 2,
        "widthcode": 4,
        "pipediamter": 78,
        "pipediamterinternalid": 6,
        "torque": 55,
        "csi": false,
        "wired": false,
        "name": "אלטוס"
    },
    {
        "openingcode": 3,
        "arms": 2,
        "widthcode": 4,
        "pipediamter": 78,
        "pipediamterinternalid": 6,
        "torque": 55,
        "csi": false,
        "wired": false,
        "name": "אוראה"
    },
    {
        "openingcode": 1,
        "arms": 6,
        "widthcode": 3,
        "pipediamter": 78,
        "pipediamterinternalid": 6,
        "torque": 70,
        "csi": false,
        "wired": true,
        "name": "אנטרס"
    },
    {
        "openingcode": 1,
        "arms": 6,
        "widthcode": 3,
        "pipediamter": 78,
        "pipediamterinternalid": 6,
        "torque": 70,
        "csi": true,
        "wired": true,
        "name": "אנטרס"
    },
    {
        "openingcode": 1,
        "arms": 6,
        "widthcode": 3,
        "pipediamter": 78,
        "pipediamterinternalid": 6,
        "torque": 70,
        "csi": false,
        "wired": false,
        "name": "אלטוס"
    },
    {
        "openingcode": 1,
        "arms": 6,
        "widthcode": 3,
        "pipediamter": 78,
        "pipediamterinternalid": 6,
        "torque": 70,
        "csi": false,
        "wired": false,
        "name": "אוראה"
    },
    {
        "openingcode": 4,
        "arms": 2,
        "widthcode": 1,
        "pipediamter": 78,
        "pipediamterinternalid": 6,
        "torque": 85,
        "csi": false,
        "wired": true,
        "name": "יופיטר"
    },
    {
        "openingcode": 3,
        "arms": 4,
        "widthcode": 2,
        "pipediamter": 78,
        "pipediamterinternalid": 6,
        "torque": 85,
        "csi": false,
        "wired": true,
        "name": "יופיטר"
    },
    {
        "openingcode": 4,
        "arms": 2,
        "widthcode": 1,
        "pipediamter": 78,
        "pipediamterinternalid": 6,
        "torque": 85,
        "csi": true,
        "wired": true,
        "name": "יופיטר"
    },
    {
        "openingcode": 3,
        "arms": 4,
        "widthcode": 2,
        "pipediamter": 78,
        "pipediamterinternalid": 6,
        "torque": 85,
        "csi": true,
        "wired": true,
        "name": "יופיטר"
    },
    {
        "openingcode": 4,
        "arms": 2,
        "widthcode": 1,
        "pipediamter": 78,
        "pipediamterinternalid": 6,
        "torque": 85,
        "csi": false,
        "wired": false,
        "name": "אלטוס"
    },
    {
        "openingcode": 3,
        "arms": 4,
        "widthcode": 2,
        "pipediamter": 78,
        "pipediamterinternalid": 6,
        "torque": 85,
        "csi": false,
        "wired": false,
        "name": "אלטוס"
    },
    {
        "openingcode": 4,
        "arms": 4,
        "widthcode": 2,
        "pipediamter": 78,
        "pipediamterinternalid": 6,
        "torque": 100,
        "csi": false,
        "wired": true,
        "name": "טיטן"
    },
    {
        "openingcode": 3,
        "arms": 6,
        "widthcode": 3,
        "pipediamter": 78,
        "pipediamterinternalid": 6,
        "torque": 100,
        "csi": false,
        "wired": true,
        "name": "טיטן"
    },
    {
        "openingcode": 4,
        "arms": 4,
        "widthcode": 2,
        "pipediamter": 78,
        "pipediamterinternalid": 6,
        "torque": 100,
        "csi": true,
        "wired": true,
        "name": "טיטן"
    },
    {
        "openingcode": 3,
        "arms": 6,
        "widthcode": 3,
        "pipediamter": 78,
        "pipediamterinternalid": 6,
        "torque": 100,
        "csi": true,
        "wired": true,
        "name": "טיטן"
    },
    {
        "openingcode": 4,
        "arms": 6,
        "widthcode": 3,
        "pipediamter": 78,
        "pipediamterinternalid": 6,
        "torque": 120,
        "csi": false,
        "wired": true,
        "name": "טאורוס"
    },
    {
        "openingcode": 4,
        "arms": 6,
        "widthcode": 3,
        "pipediamter": 78,
        "pipediamterinternalid": 6,
        "torque": 120,
        "csi": true,
        "wired": true,
        "name": "טאורוס"
    },
    {
        "openingcode": 4,
        "arms": 6,
        "widthcode": 3,
        "pipediamter": 78,
        "pipediamterinternalid": 6,
        "torque": 120,
        "csi": true,
        "wired": false,
        "name": "אלטוס"
    },
    {
        "openingcode": 2,
        "arms": 2,
        "widthcode": 1,
        "pipediamter": 85,
        "pipediamterinternalid": 8,
        "torque": 30,
        "csi": true,
        "wired": false,
        "name": "הליוס"
    },
    {
        "openingcode": 2,
        "arms": 4,
        "widthcode": 2,
        "pipediamter": 85,
        "pipediamterinternalid": 8,
        "torque": 40,
        "csi": false,
        "wired": true,
        "name": "מרינר"
    },
    {
        "openingcode": 2,
        "arms": 4,
        "widthcode": 2,
        "pipediamter": 85,
        "pipediamterinternalid": 8,
        "torque": 40,
        "csi": true,
        "wired": true,
        "name": "מרינר"
    },
    {
        "openingcode": 2,
        "arms": 4,
        "widthcode": 2,
        "pipediamter": 85,
        "pipediamterinternalid": 8,
        "torque": 40,
        "csi": true,
        "wired": false,
        "name": "מרינר"
    },
    {
        "openingcode": 2,
        "arms": 4,
        "widthcode": 2,
        "pipediamter": 85,
        "pipediamterinternalid": 8,
        "torque": 40,
        "csi": false,
        "wired": false,
        "name": "אלטוס"
    },
    {
        "openingcode": 2,
        "arms": 4,
        "widthcode": 2,
        "pipediamter": 85,
        "pipediamterinternalid": 8,
        "torque": 40,
        "csi": false,
        "wired": false,
        "name": "אוראה"
    },
    {
        "openingcode": 1,
        "arms": 4,
        "widthcode": 1,
        "pipediamter": 85,
        "pipediamterinternalid": 8,
        "torque": 55,
        "csi": false,
        "wired": true,
        "name": "אוריון"
    },
    {
        "openingcode": 2,
        "arms": 4,
        "widthcode": 1,
        "pipediamter": 85,
        "pipediamterinternalid": 8,
        "torque": 55,
        "csi": false,
        "wired": true,
        "name": "אוריון"
    },
    {
        "openingcode": 1,
        "arms": 4,
        "widthcode": 2,
        "pipediamter": 85,
        "pipediamterinternalid": 8,
        "torque": 55,
        "csi": false,
        "wired": true,
        "name": "אוריון"
    },
    {
        "openingcode": 2,
        "arms": 4,
        "widthcode": 2,
        "pipediamter": 85,
        "pipediamterinternalid": 8,
        "torque": 55,
        "csi": false,
        "wired": true,
        "name": "אוריון"
    },
    {
        "openingcode": 1,
        "arms": 4,
        "widthcode": 1,
        "pipediamter": 85,
        "pipediamterinternalid": 8,
        "torque": 55,
        "csi": true,
        "wired": true,
        "name": "אוריון"
    },
    {
        "openingcode": 2,
        "arms": 4,
        "widthcode": 1,
        "pipediamter": 85,
        "pipediamterinternalid": 8,
        "torque": 55,
        "csi": true,
        "wired": true,
        "name": "אוריון"
    },
    {
        "openingcode": 1,
        "arms": 4,
        "widthcode": 2,
        "pipediamter": 85,
        "pipediamterinternalid": 8,
        "torque": 55,
        "csi": true,
        "wired": true,
        "name": "אוריון"
    },
    {
        "openingcode": 2,
        "arms": 4,
        "widthcode": 2,
        "pipediamter": 85,
        "pipediamterinternalid": 8,
        "torque": 55,
        "csi": true,
        "wired": true,
        "name": "אוריון"
    },
    {
        "openingcode": 1,
        "arms": 4,
        "widthcode": 1,
        "pipediamter": 85,
        "pipediamterinternalid": 8,
        "torque": 55,
        "csi": false,
        "wired": false,
        "name": "אלטוס"
    },
    {
        "openingcode": 2,
        "arms": 4,
        "widthcode": 1,
        "pipediamter": 85,
        "pipediamterinternalid": 8,
        "torque": 55,
        "csi": false,
        "wired": false,
        "name": "אלטוס"
    },
    {
        "openingcode": 1,
        "arms": 4,
        "widthcode": 2,
        "pipediamter": 85,
        "pipediamterinternalid": 8,
        "torque": 55,
        "csi": false,
        "wired": false,
        "name": "אלטוס"
    },
    {
        "openingcode": 2,
        "arms": 4,
        "widthcode": 2,
        "pipediamter": 85,
        "pipediamterinternalid": 8,
        "torque": 55,
        "csi": false,
        "wired": false,
        "name": "אלטוס"
    },
    {
        "openingcode": 1,
        "arms": 4,
        "widthcode": 1,
        "pipediamter": 85,
        "pipediamterinternalid": 8,
        "torque": 55,
        "csi": false,
        "wired": false,
        "name": "אוראה"
    },
    {
        "openingcode": 2,
        "arms": 4,
        "widthcode": 1,
        "pipediamter": 85,
        "pipediamterinternalid": 8,
        "torque": 55,
        "csi": false,
        "wired": false,
        "name": "אוראה"
    },
    {
        "openingcode": 1,
        "arms": 4,
        "widthcode": 2,
        "pipediamter": 85,
        "pipediamterinternalid": 8,
        "torque": 55,
        "csi": false,
        "wired": false,
        "name": "אוראה"
    },
    {
        "openingcode": 2,
        "arms": 4,
        "widthcode": 2,
        "pipediamter": 85,
        "pipediamterinternalid": 8,
        "torque": 55,
        "csi": false,
        "wired": false,
        "name": "אוראה"
    },
    {
        "openingcode": 3,
        "arms": 2,
        "widthcode": 1,
        "pipediamter": 85,
        "pipediamterinternalid": 8,
        "torque": 70,
        "csi": false,
        "wired": true,
        "name": "אנטרס"
    },
    {
        "openingcode": 2,
        "arms": 6,
        "widthcode": 3,
        "pipediamter": 85,
        "pipediamterinternalid": 8,
        "torque": 70,
        "csi": false,
        "wired": true,
        "name": "אנטרס"
    },
    {
        "openingcode": 3,
        "arms": 2,
        "widthcode": 1,
        "pipediamter": 85,
        "pipediamterinternalid": 8,
        "torque": 70,
        "csi": true,
        "wired": true,
        "name": "אנטרס"
    },
    {
        "openingcode": 2,
        "arms": 6,
        "widthcode": 3,
        "pipediamter": 85,
        "pipediamterinternalid": 8,
        "torque": 70,
        "csi": true,
        "wired": true,
        "name": "אנטרס"
    },
    {
        "openingcode": 3,
        "arms": 2,
        "widthcode": 1,
        "pipediamter": 85,
        "pipediamterinternalid": 8,
        "torque": 70,
        "csi": false,
        "wired": false,
        "name": "אלטוס"
    },
    {
        "openingcode": 2,
        "arms": 6,
        "widthcode": 3,
        "pipediamter": 85,
        "pipediamterinternalid": 8,
        "torque": 70,
        "csi": false,
        "wired": false,
        "name": "אלטוס"
    },
    {
        "openingcode": 3,
        "arms": 2,
        "widthcode": 1,
        "pipediamter": 85,
        "pipediamterinternalid": 8,
        "torque": 70,
        "csi": false,
        "wired": false,
        "name": "אוראה"
    },
    {
        "openingcode": 2,
        "arms": 6,
        "widthcode": 3,
        "pipediamter": 85,
        "pipediamterinternalid": 8,
        "torque": 70,
        "csi": false,
        "wired": false,
        "name": "אוראה"
    },
    {
        "openingcode": 1,
        "arms": 6,
        "widthcode": 3,
        "pipediamter": 85,
        "pipediamterinternalid": 8,
        "torque": 85,
        "csi": false,
        "wired": true,
        "name": "יופיטר"
    },
    {
        "openingcode": 2,
        "arms": 6,
        "widthcode": 3,
        "pipediamter": 85,
        "pipediamterinternalid": 8,
        "torque": 85,
        "csi": false,
        "wired": true,
        "name": "יופיטר"
    },
    {
        "openingcode": 1,
        "arms": 6,
        "widthcode": 3,
        "pipediamter": 85,
        "pipediamterinternalid": 8,
        "torque": 85,
        "csi": true,
        "wired": true,
        "name": "יופיטר"
    },
    {
        "openingcode": 2,
        "arms": 6,
        "widthcode": 3,
        "pipediamter": 85,
        "pipediamterinternalid": 8,
        "torque": 85,
        "csi": true,
        "wired": true,
        "name": "יופיטר"
    },
    {
        "openingcode": 1,
        "arms": 6,
        "widthcode": 3,
        "pipediamter": 85,
        "pipediamterinternalid": 8,
        "torque": 85,
        "csi": false,
        "wired": false,
        "name": "אלטוס"
    },
    {
        "openingcode": 2,
        "arms": 6,
        "widthcode": 3,
        "pipediamter": 85,
        "pipediamterinternalid": 8,
        "torque": 85,
        "csi": false,
        "wired": false,
        "name": "אלטוס"
    },
    {
        "openingcode": 4,
        "arms": 2,
        "widthcode": 1,
        "pipediamter": 85,
        "pipediamterinternalid": 8,
        "torque": 100,
        "csi": false,
        "wired": true,
        "name": "טיטן"
    },
    {
        "openingcode": 3,
        "arms": 4,
        "widthcode": 2,
        "pipediamter": 85,
        "pipediamterinternalid": 8,
        "torque": 100,
        "csi": false,
        "wired": true,
        "name": "טיטן"
    },
    {
        "openingcode": 4,
        "arms": 2,
        "widthcode": 1,
        "pipediamter": 85,
        "pipediamterinternalid": 8,
        "torque": 100,
        "csi": true,
        "wired": true,
        "name": "טיטן"
    },
    {
        "openingcode": 3,
        "arms": 4,
        "widthcode": 2,
        "pipediamter": 85,
        "pipediamterinternalid": 8,
        "torque": 100,
        "csi": true,
        "wired": true,
        "name": "טיטן"
    },
    {
        "openingcode": 4,
        "arms": 4,
        "widthcode": 2,
        "pipediamter": 85,
        "pipediamterinternalid": 8,
        "torque": 120,
        "csi": false,
        "wired": true,
        "name": "טאורוס"
    },
    {
        "openingcode": 3,
        "arms": 6,
        "widthcode": 3,
        "pipediamter": 85,
        "pipediamterinternalid": 8,
        "torque": 120,
        "csi": false,
        "wired": true,
        "name": "טאורוס"
    },
    {
        "openingcode": 4,
        "arms": 4,
        "widthcode": 2,
        "pipediamter": 85,
        "pipediamterinternalid": 8,
        "torque": 120,
        "csi": true,
        "wired": true,
        "name": "טאורוס"
    },
    {
        "openingcode": 3,
        "arms": 6,
        "widthcode": 3,
        "pipediamter": 85,
        "pipediamterinternalid": 8,
        "torque": 120,
        "csi": true,
        "wired": true,
        "name": "טאורוס"
    },
    {
        "openingcode": 4,
        "arms": 4,
        "widthcode": 2,
        "pipediamter": 85,
        "pipediamterinternalid": 8,
        "torque": 120,
        "csi": true,
        "wired": false,
        "name": "אלטוס"
    },
    {
        "openingcode": 3,
        "arms": 6,
        "widthcode": 3,
        "pipediamter": 85,
        "pipediamterinternalid": 8,
        "torque": 120,
        "csi": true,
        "wired": false,
        "name": "אלטוס"
    }
]