<?xml version="1.0" encoding="utf-8"?>
<!-- Generator: Adobe Illustrator 24.3.0, SVG Export Plug-In . SVG Version: 6.00 Build 0)  -->
<svg version="1.1" id="Capa_1" xmlns="http://www.w3.org/2000/svg" xmlns:xlink="http://www.w3.org/1999/xlink" x="0px" y="0px"
	 viewBox="0 0 512 512" style="enable-background:new 0 0 512 512;" xml:space="preserve">
<polygon points="272,361.4 272,304 240.1,304 240.1,361.4 219.4,340.7 196.6,363.3 256,422.6 315.4,363.3 292.6,340.7 "/>
<polyline points="256,89.4 196.6,148.7 219.4,171.3 240.1,150.6 240.1,208 272,208 272,150.6 292.6,171.3 315.4,148.7 256,89.4 "/>
<rect x="240.1" y="240" width="32" height="32"/>
</svg>
