<?xml version="1.0" encoding="utf-8"?>
<!-- Generator: Adobe Illustrator 24.3.0, SVG Export Plug-In . SVG Version: 6.00 Build 0)  -->
<svg version="1.1" id="_x31__x2C_5" xmlns="http://www.w3.org/2000/svg" xmlns:xlink="http://www.w3.org/1999/xlink" x="0px"
	 y="0px" viewBox="0 0 512 512" style="enable-background:new 0 0 512 512;" xml:space="preserve">
<g id="XMLID_1_">
	<path d="M368,160c8.7,0,16,7.3,16,16s-7.3,16-16,16h-16v-32H368z"/>
	<path d="M368,192c8.7,0,16-7.3,16-16v21.3c0,8.7-7.3,16-16,16s-16-7.3-16-16V192H368z"/>
	<path d="M32,160h320v32H32V160z"/>
	<path d="M384,288c-19.6,0-37.5,5.5-52.7,16h-22v-23.3c17.1-13,37.3-21.1,59.1-23.9c5.1-0.6,10.2-0.9,15.6-0.9
		c70.6,0,128,57.4,128,128s-57.4,128-128,128c-44.2,0-83.2-22.4-106-56.3c-13.9-20.5-22-45.2-22-71.7c0-8.7,7.3-16,16-16
		s16,7.3,16,16c0,52.9,43.1,96,96,96s96-43.1,96-96S436.9,288,384,288z"/>
	<path d="M356.1,320c0,8.7-7,16-16,16h-46.7c5.1,0,10-2.3,13.2-6.8c7-10.2,15.4-18.6,24.7-25.2h8.7C349,304,356.1,311.3,356.1,320
		L356.1,320z"/>
	<path d="M293.3,256c8.7,0,16,7.3,16,16v8.7c-11.1,8.1-20.9,18.1-29.2,30.1c-1.9,2.8-2.8,6-2.8,9.2v-48
		C277.3,263.3,284.6,256,293.3,256z"/>
	<path d="M331.3,304c-9.4,6.6-17.7,14.9-24.7,25.2c-3.2,4.5-8.1,6.8-13.2,6.8c-1.5,0-2.8-0.2-4.1-0.6c-0.6,0-1.1-0.2-1.7-0.4
		c-4.1-1.7-7.5-4.9-9-9c-0.4-0.9-0.9-1.7-0.9-2.8c-0.2-1.1-0.4-2.1-0.4-3.2c0-3.2,0.9-6.4,2.8-9.2c8.3-11.9,18.1-22,29.2-30.1V304
		H331.3z"/>
	<path d="M289.3,335.4c-0.6,0-1.1-0.2-1.7-0.4C288.2,335.1,288.6,335.4,289.3,335.4z"/>
	<ellipse transform="matrix(0.1602 -0.9871 0.9871 0.1602 127.5592 363.3279)" cx="277.3" cy="106.7" rx="21.3" ry="21.3"/>
	<path d="M277.8,323.2c0,1.1,0.4,1.9,0.9,2.8C278.2,325.1,277.8,324.1,277.8,323.2z"/>
	<path d="M218.7,320c8.7,0,16,7.3,16,16s-7.3,16-16,16H32v-32H218.7z"/>
	<circle cx="192" cy="106.7" r="21.3"/>
	<circle cx="106.7" cy="106.7" r="21.3"/>
	<path d="M32,320v32h-5.3c-8.7,0-16-7.3-16-16s7.3-16,16-16H32z"/>
	<path d="M32,160v32H16c-8.7,0-16-7.3-16-16s7.3-16,16-16H32z"/>
	<path d="M325.3,32H58.7C43.9,32,32,43.9,32,58.7V160H16c-8.7,0-16,7.3-16,16V58.7C0,26.2,26.2,0,58.7,0h266.7
		C357.8,0,384,26.2,384,58.7V176c0-8.7-7.3-16-16-16h-16V58.7C352,43.9,340.1,32,325.3,32z"/>
	<path d="M240,480c8.7,0,16,7.3,16,16s-7.3,16-16,16H58.7C26.2,512,0,485.8,0,453.3V176c0,8.7,7.3,16,16,16h16v128h-5.3
		c-8.7,0-16,7.3-16,16s7.3,16,16,16H32v101.3C32,468,43.9,480,58.7,480H240z"/>
</g>
</svg>
