<?xml version="1.0" encoding="utf-8"?>
<!-- Generator: Adobe Illustrator 24.3.0, SVG Export Plug-In . SVG Version: 6.00 Build 0)  -->
<svg version="1.1" id="Capa_1" xmlns="http://www.w3.org/2000/svg" xmlns:xlink="http://www.w3.org/1999/xlink" x="0px" y="0px"
	 viewBox="0 0 512 512" style="enable-background:new 0 0 512 512;" xml:space="preserve">
<g>
	<g>
		<path d="M91.5,56.3L91.5,56.3c-18.6,0.3-33.7,15.6-33.7,34.1v48.7H7.5c-4.2,0-7.5,3.4-7.5,7.5s3.4,7.5,7.5,7.5h50.3v39.6H7.5
			c-4.2,0-7.5,3.4-7.5,7.5s3.4,7.5,7.5,7.5h50.3v39.6H7.5c-4.2,0-7.5,3.4-7.5,7.5c0,4.2,3.4,7.5,7.5,7.5h50.3v39.6H7.5
			c-4.2,0-7.5,3.4-7.5,7.5s3.4,7.5,7.5,7.5h50.3v39.6H7.5c-4.2,0-7.5,3.4-7.5,7.5s3.4,7.5,7.5,7.5h50.3v25.8c0,4.2,3.4,7.5,7.5,7.5
			s7.5-3.4,7.5-7.5V90.4c0-10.3,8.4-18.9,18.7-19c4.2-0.1,7.5-3.5,7.4-7.6C99,59.6,95.6,56.3,91.5,56.3z"/>
	</g>
</g>
<g>
	<g>
		<path d="M410.2,437.5H91.9c-7.8,0-14.7-4.6-17.6-11.8c-1.6-3.9-6-5.7-9.8-4.1c-3.9,1.6-5.7,6-4.1,9.8
			c5.3,12.9,17.7,21.2,31.6,21.2h47.2v51.8c0,4.2,3.4,7.5,7.5,7.5s7.5-3.4,7.5-7.5v-51.8h39.6v51.8c0,4.2,3.4,7.5,7.5,7.5
			s7.5-3.4,7.5-7.5v-51.8h39.6v51.8c0,4.2,3.4,7.5,7.5,7.5s7.5-3.4,7.5-7.5v-51.8H303v51.8c0,4.2,3.4,7.5,7.5,7.5s7.5-3.4,7.5-7.5
			v-51.8h39.6v51.8c0,4.2,3.4,7.5,7.5,7.5s7.5-3.4,7.5-7.5v-51.8h37.2c4.2,0,7.5-3.4,7.5-7.5C417.7,440.9,414.3,437.5,410.2,437.5z"
			/>
	</g>
</g>
<g>
	<g>
		<path d="M358.2,128.1H153.8c-13.3,0-24.1,10.8-24.1,24.1v204.4c0,13.3,10.8,24.1,24.1,24.1h204.4c13.3,0,24.1-10.8,24.1-24.1
			V152.2C382.3,138.9,371.5,128.1,358.2,128.1z M144.8,152.2c0-5,4-9,9-9h155.9v78.7c-13.6,2.9-24.4,13.7-27.3,27.3h-55.5v-38.6
			c14.2-2.8,25-15.4,25-30.4c0-17.1-13.9-31-31-31c-15,0-27.6,10.8-30.4,25h-45.7L144.8,152.2L144.8,152.2z M317.2,236.2
			c11.4,0,20.6,9.2,20.6,20.6s-9.2,20.6-20.6,20.6s-20.6-9.3-20.6-20.6C296.6,245.5,305.8,236.2,317.2,236.2z M220.8,196.1
			c-8.7,0-15.9-7.1-15.9-15.9c0-8.8,7.1-15.9,15.9-15.9s15.9,7.1,15.9,15.9C236.7,189.1,229.5,196.1,220.8,196.1z M188.3,319.3
			c-4.4-2.5-7.3-7.1-7.3-12.5c0-7.9,6.4-14.3,14.3-14.3s14.3,6.4,14.3,14.3C209.7,317.7,197.8,324.7,188.3,319.3z M249.2,365.7
			h-50.6V336c14.6-1.7,26-14.1,26-29.2c0-16.2-13.2-29.4-29.4-29.4s-29.4,13.2-29.4,29.4c0,12.1,7.3,22.5,17.7,27v31.9h-29.8
			c-5,0-9-4-9-9V189.3h46.5c0.1,0.1,4.1,15.5,20.5,20.5v47c0,4.2,3.4,7.5,7.5,7.5h30L249.2,365.7L249.2,365.7z M367.2,356.7
			c0,5-4,9-9,9h-93.9v-32.6h102.9V356.7z M367.2,318H264.3v-53.7h18c3.5,16.1,17.8,28.1,34.9,28.1c19.7,0,35.7-16,35.7-35.7
			c0-17.1-12.1-31.4-28.1-34.9l0,0v-78.7h33.5c5,0,9,4,9,9L367.2,318L367.2,318z"/>
	</g>
</g>
<g>
	<g>
		<path d="M504.5,208.8c4.2,0,7.5-3.4,7.5-7.5s-3.4-7.5-7.5-7.5h-50.3v-39.6h50.3c4.2,0,7.5-3.4,7.5-7.5s-3.4-7.5-7.5-7.5h-50.3
			V90.4c0-18.8-15.3-34.1-34.1-34.1h-47.2V7.5c0-4.2-3.4-7.5-7.5-7.5s-7.5,3.4-7.5,7.5v48.7h-39.6V7.5c0-4.2-3.4-7.5-7.5-7.5
			s-7.5,3.4-7.5,7.5v48.7h-39.6V7.5c0-4.2-3.4-7.5-7.5-7.5s-7.5,3.4-7.5,7.5v48.7h-39.6V7.5c0-4.2-3.4-7.5-7.5-7.5s-7.5,3.4-7.5,7.5
			v48.7h-39.6V7.5c0-4.2-3.4-7.5-7.5-7.5s-7.5,3.4-7.5,7.5v48.7h-17.4c-4.2,0-7.5,3.4-7.5,7.5s3.4,7.5,7.5,7.5
			c39.5,0,266.8,0,298.4,0c10.5,0,19,8.5,19,19v328.2c0,5.3-2.1,10.1-5.9,13.8c-3,2.9-3.1,7.6-0.3,10.7c1.5,1.6,3.5,2.3,5.5,2.3
			c1.9,0,3.7-0.7,5.2-2.1c6.8-6.5,10.6-15.3,10.6-24.7v-45.6h50.3c4.2,0,7.5-3.4,7.5-7.5s-3.4-7.5-7.5-7.5h-50.3v-39.6h50.3
			c4.2,0,7.5-3.4,7.5-7.5s-3.4-7.5-7.5-7.5h-50.3v-39.6h50.3c4.2,0,7.5-3.4,7.5-7.5s-3.4-7.5-7.5-7.5h-50.3V209L504.5,208.8
			L504.5,208.8z"/>
	</g>
</g>
</svg>
