{
    "key": "group_5fb3bc1f5bf8e",
    "title": "מוצר - Classification",
    "fields": [
        {
            "key": "field_5fb3bc1fcb205",
            "label": "FEATURED DESCRIPTION",
            "name": "featureddescription",
            "type": "wysiwyg",
            "instructions": "",
            "required": 0,
            "conditional_logic": 0,
            "wrapper": {
                "width": "",
                "class": "",
                "id": ""
            },
            "default_value": "",
            "tabs": "all",
            "toolbar": "full",
            "media_upload": 1,
            "delay": 0
        },
        {
            "key": "field_5fb3bc1f9ef6b",
            "label": "CONNECTED",
            "name": "custitem_connected",
            "type": "true_false",
            "instructions": "",
            "required": 0,
            "conditional_logic": 0,
            "wrapper": {
                "width": "",
                "class": "",
                "id": ""
            },
            "message": "",
            "default_value": 0,
            "ui": 0,
            "ui_on_text": "",
            "ui_off_text": ""
        },
        {
            "key": "field_5fb3bc1fcedbc",
            "label": "DATASHEET",
            "name": "custitem_datasheet",
            "type": "text",
            "instructions": "",
            "required": 0,
            "conditional_logic": 0,
            "wrapper": {
                "width": "",
                "class": "",
                "id": ""
            },
            "default_value": "",
            "placeholder": "",
            "prepend": "",
            "append": "",
            "maxlength": ""
        },
        {
            "key": "field_5fbe02028fcad",
            "label": "tax schdule",
            "name": "tax_schdule",
            "type": "select",
            "instructions": "",
            "required": 0,
            "conditional_logic": 0,
            "wrapper": {
                "width": "",
                "class": "",
                "id": ""
            },
            "choices": {
                "-1": "",
                "1": "Default Tax Schdule",
                "2": "ILI – מע\"מ עסקאות רש\"פ",
                "3": "ILSE - מע\"מ עסקאות פטורות"
            },
            "default_value": 1,
            "allow_null": 0,
            "multiple": 0,
            "ui": 0,
            "return_format": "array",
            "ajax": 0,
            "placeholder": ""
        },
        {
            "key": "field_5fbe022b8fcae",
            "label": "Subsidiary",
            "name": "subsidiary",
            "type": "select",
            "instructions": "",
            "required": 0,
            "conditional_logic": 0,
            "wrapper": {
                "width": "",
                "class": "",
                "id": ""
            },
            "choices": {
                "1": "Parent Company"
            },
            "default_value": 1,
            "allow_null": 0,
            "multiple": 0,
            "ui": 0,
            "return_format": "array",
            "ajax": 0,
            "placeholder": ""
        },
        {
            "key": "field_60826f82910b6",
            "label": "Type",
            "name": "type",
            "type": "text",
            "instructions": "",
            "required": 0,
            "conditional_logic": 0,
            "wrapper": {
                "width": "",
                "class": "",
                "id": ""
            },
            "default_value": "",
            "placeholder": "",
            "prepend": "",
            "append": "",
            "maxlength": ""
        },
        {
            "key": "field_60826fff910b7",
            "label": "Product Category",
            "name": "custitem_productcategory",
            "type": "select",
            "instructions": "",
            "required": 0,
            "conditional_logic": 0,
            "wrapper": {
                "width": "",
                "class": "",
                "id": ""
            },
            "choices": {
                "-1": "",
                "1": "Various",
                "2": "Accessories",
                "3": "Command systems",
                "4": "Motors",
                "5": "Sets 4",
                "6": "Laboratory",
                "7": "Sets 5"
            },
            "default_value": 1,
            "allow_null": 0,
            "multiple": 0,
            "ui": 0,
            "return_format": "array",
            "ajax": 0,
            "placeholder": ""
        }
    ],
    "location": [
        [
            {
                "param": "post_type",
                "operator": "==",
                "value": "product"
            }
        ]
    ],
    "menu_order": 3,
    "position": "normal",
    "style": "default",
    "label_placement": "top",
    "instruction_placement": "label",
    "hide_on_screen": "",
    "active": true,
    "description": "",
    "modified": 1619161316
}