{
    "key": "group_5fe9d87246ade",
    "title": "Shop Advanced Filters",
    "fields": [
        {
            "key": "field_5fe9d888b6f4d",
            "label": "אפשרויות סינון מתקדם",
            "name": "filters",
            "type": "select",
            "instructions": "",
            "required": 0,
            "conditional_logic": 0,
            "wrapper": {
                "width": "",
                "class": "",
                "id": ""
            },
            "choices": {
                "custitem_color": "custitem_color",
                "custitem_warranty": "custitem_warranty",
                "custitem_csi": "custitem_csi",
                "custitem_wf": "custitem_wf",
                "custitem_torque": "custitem_torque",
                "custitem_lsu_capacity": "custitem_lsu_capacity",
                "custitem_power_w": "custitem_power_w",
                "custitem_wireradio": "custitem_wireradio",
                "custitem_rpm": "custitem_rpm",
                "custitem_channels": "custitem_channels",
                "custitem_remote_type": "custitem_remote_type",
                "custitem_manuela": "custitem_manuela",
                "custitem_motor_diameter": "custitem_motor_diameter",
                "custitem_opening_mm": "custitem_opening_mm",
                "custitem_voltage": "custitem_voltage",
                "custitem_diameter": "custitem_diameter",
                "custitem_radiofreaquency": "custitem_radiofreaquency",
                "custitem_somfy_web_product_category": "custitem_somfy_web_product_category",
                "custitem_sub_product_group": "custitem_sub_product_group",
                "custitem_sub2productgroup": "custitem_sub2productgroup",
                "custitem_productline": "custitem_productline",
                "custitem_series": "custitem_series"
            },
            "default_value": [],
            "allow_null": 0,
            "multiple": 1,
            "ui": 0,
            "return_format": "value",
            "ajax": 0,
            "placeholder": ""
        }
    ],
    "location": [
        [
            {
                "param": "post_type",
                "operator": "==",
                "value": "product_subgroup"
            }
        ],
        [
            {
                "param": "page",
                "operator": "==",
                "value": "251"
            }
        ],
        [
            {
                "param": "post_type",
                "operator": "==",
                "value": "product_category"
            }
        ]
    ],
    "menu_order": 0,
    "position": "normal",
    "style": "default",
    "label_placement": "top",
    "instruction_placement": "label",
    "hide_on_screen": "",
    "active": true,
    "description": "",
    "modified": 1613385313
}