<?xml version="1.0" encoding="utf-8"?>
<!-- Generator: Adobe Illustrator 25.0.0, SVG Export Plug-In . SVG Version: 6.00 Build 0)  -->
<svg version="1.1" id="Yellow" xmlns="http://www.w3.org/2000/svg" xmlns:xlink="http://www.w3.org/1999/xlink" x="0px" y="0px"
	 viewBox="0 0 93.99 119.35" style="enable-background:new 0 0 93.99 119.35;" xml:space="preserve">
<style type="text/css">
	.st0{fill:#FFE494;}
	.st1{fill:#FBB70D;}
	.st2{fill:#FFDD94;}
</style>
<path class="st0" d="M18.77,36.55l-0.99-1.74c0.24-0.14,6.15-3.41,21.96-3.41c17.19,0,21.58,3.35,21.76,3.5l-1.25,1.56
	c-0.03-0.02-4.27-3.06-20.51-3.06C24.57,33.4,18.83,36.52,18.77,36.55z"/>
<path class="st1" d="M54.39,105.47c-6.07,0-14.82-4.21-22.99-11.59c-5.4-4.88-9.66-10.36-12.01-15.44
	c-2.47-5.35-2.55-9.72-0.21-12.3c4.7-5.2,17.4-1.12,28.91,9.28l0,0c5.4,4.88,9.66,10.37,12.02,15.48c2.48,5.37,2.55,9.76,0.22,12.34
	C58.96,104.75,56.9,105.47,54.39,105.47z M25.15,65.85c-1.93,0-3.49,0.52-4.48,1.62c-1.74,1.92-1.54,5.61,0.55,10.12
	c2.24,4.84,6.33,10.09,11.54,14.79c10.35,9.35,22.3,13.7,26.09,9.5c1.74-1.92,1.54-5.63-0.55-10.16
	c-2.24-4.87-6.34-10.14-11.54-14.83l0,0C39.12,70.01,30.61,65.85,25.15,65.85z"/>
<path class="st1" d="M60.89,100.57c-0.55,0-1-0.45-1-1V22.31c-1.33-0.7-6.51-2.84-20.14-2.84c-12.67,0-18.77,2.17-20.46,2.91v47.7
	c0,0.55-0.45,1-1,1s-1-0.45-1-1V21.75c0-0.36,0.19-0.69,0.5-0.87c0.24-0.14,6.15-3.41,21.96-3.41c17.19,0,21.58,3.35,21.76,3.5
	c0.24,0.19,0.38,0.48,0.38,0.78v77.82C61.89,100.12,61.44,100.57,60.89,100.57z"/>
<path class="st1" d="M78.09,86.64c-0.03,0-0.06,0-0.1,0l-17.2-1.66c-0.55-0.05-0.95-0.54-0.9-1.09c0.05-0.55,0.54-0.95,1.09-0.9
	l17.06,1.64l7.24-1.45V30.62l-7.34-2.93L61.8,29.3c-0.54,0.06-1.04-0.35-1.09-0.9c-0.05-0.55,0.35-1.04,0.9-1.09l16.39-1.64
	c0.16-0.02,0.32,0.01,0.47,0.07l8.19,3.28c0.38,0.15,0.63,0.52,0.63,0.93v54.06c0,0.48-0.34,0.89-0.8,0.98l-8.19,1.64
	C78.22,86.64,78.16,86.64,78.09,86.64z"/>
<path class="st1" d="M78.09,86.64c-0.55,0-1-0.45-1-1V26.67c0-0.55,0.45-1,1-1s1,0.45,1,1v58.98C79.09,86.2,78.64,86.64,78.09,86.64
	z"/>
<path class="st1" d="M40.57,88.92c-2.45,0-5.46-1.16-8.2-3.35c-2.13-1.71-3.77-3.78-4.62-5.85c-0.93-2.27-0.82-4.29,0.31-5.7
	c2.21-2.77,7.58-2.03,12.21,1.68c2.13,1.71,3.77,3.78,4.62,5.85c0.93,2.27,0.82,4.29-0.31,5.7C43.68,88.38,42.25,88.92,40.57,88.92z
	 M32.09,74.34c-1.11,0-1.99,0.32-2.47,0.93c-0.64,0.8-0.65,2.15-0.02,3.69c0.72,1.76,2.15,3.56,4.02,5.05
	c4.01,3.21,8.1,3.62,9.4,1.99c0.64-0.8,0.65-2.15,0.02-3.69c-0.72-1.76-2.15-3.56-4.02-5.05C36.51,75.25,33.96,74.34,32.09,74.34z"
	/>
<path class="st2" d="M50.42,98.4c-0.13,0-0.27-0.01-0.4-0.02c-1.06-0.1-2.19-0.58-3.16-1.36c-0.97-0.78-1.69-1.77-2.02-2.78
	c-0.35-1.09-0.23-2.09,0.35-2.82c1.17-1.46,3.73-1.28,5.83,0.4l0,0c2.1,1.68,2.83,4.14,1.66,5.6C52.18,98.06,51.38,98.4,50.42,98.4z
	 M47.47,91.44c-0.63,0-1.16,0.2-1.49,0.6c-0.36,0.45-0.43,1.12-0.18,1.88c0.27,0.83,0.87,1.65,1.69,2.31
	c0.82,0.66,1.75,1.06,2.62,1.15c0.8,0.07,1.43-0.14,1.8-0.59c0.79-0.99,0.1-2.91-1.51-4.19C49.45,91.84,48.36,91.44,47.47,91.44z"/>
<path class="st1" d="M38.44,82.69c-1.34,0-2.93-0.61-4.41-1.8c-2.58-2.06-3.54-4.85-2.23-6.48c1.31-1.63,4.23-1.3,6.81,0.76v0
	c2.58,2.06,3.54,4.85,2.23,6.48C40.28,82.35,39.43,82.69,38.44,82.69z M34.19,75.39c-0.4,0-0.69,0.1-0.83,0.28
	c-0.42,0.53,0.12,2.22,1.92,3.67c1.81,1.45,3.58,1.6,4,1.07c0.42-0.53-0.12-2.22-1.92-3.67C36.16,75.78,34.97,75.39,34.19,75.39z"/>
</svg>
