<?xml version="1.0" encoding="utf-8"?>
<!-- Generator: Adobe Illustrator 25.0.0, SVG Export Plug-In . SVG Version: 6.00 Build 0)  -->
<svg version="1.1" id="Yellow" xmlns="http://www.w3.org/2000/svg" xmlns:xlink="http://www.w3.org/1999/xlink" x="0px" y="0px"
	 viewBox="0 0 88 88" style="enable-background:new 0 0 88 88;" xml:space="preserve">
<style type="text/css">
	.st0{fill:#FFDD92;}
	.st1{fill:#FAB807;}
</style>
<g>
	<rect x="22" y="13.5" class="st0" width="1" height="36"/>
	<rect x="31" y="13.5" class="st0" width="1" height="33"/>
	<rect x="40" y="13.5" class="st0" width="1" height="28"/>
	<rect x="49" y="13.5" class="st0" width="1" height="25"/>
	<rect x="58" y="13.5" class="st0" width="1" height="22"/>
	<rect x="67" y="13.5" class="st0" width="1" height="20"/>
	<rect x="15" y="21.5" class="st0" width="59" height="1"/>
	<rect x="16" y="30.5" class="st0" width="54" height="1"/>
	<rect x="17" y="39.5" class="st0" width="27" height="1"/>
</g>
<path class="st1" d="M25,72.5c-3.31,0-6-2.69-6-6s2.69-6,6-6s6,2.69,6,6S28.31,72.5,25,72.5z M25,62.5c-2.21,0-4,1.79-4,4
	s1.79,4,4,4s4-1.79,4-4S27.21,62.5,25,62.5z"/>
<path class="st1" d="M63,72.5c-3.31,0-6-2.69-6-6s2.69-6,6-6s6,2.69,6,6S66.31,72.5,63,72.5z M63,62.5c-2.21,0-4,1.79-4,4
	s1.79,4,4,4s4-1.79,4-4S65.21,62.5,63,62.5z"/>
<path class="st1" d="M68.5,62.5H25v-2h43.5c0.83,0,1.5-0.67,1.5-1.5s-0.67-1.5-1.5-1.5H19.9c-1.02,0-1.88-0.77-1.99-1.78L12.43,5.5
	H2.5C1.12,5.5,0,4.38,0,3s1.12-2.5,2.5-2.5h9.6c1.02,0,1.88,0.77,1.99,1.78L19.9,55.5h48.6c1.93,0,3.5,1.57,3.5,3.5
	S70.43,62.5,68.5,62.5z M2.5,2.5C2.22,2.5,2,2.72,2,3s0.22,0.5,0.5,0.5h9.71l-0.11-1H2.5z"/>
<path class="st1" d="M18.22,51.47l-0.44-1.95L74,36.7V13.5H14v-2h60c1.1,0,2,0.9,2,2v23.2c0,0.94-0.64,1.74-1.56,1.95L18.22,51.47z"
	/>
<circle class="st0" cx="25" cy="66.5" r="2"/>
<circle class="st0" cx="63" cy="66.5" r="2"/>
</svg>
