<?xml version="1.0" encoding="utf-8"?>
<!-- Generator: Adobe Illustrator 25.0.0, SVG Export Plug-In . SVG Version: 6.00 Build 0)  -->
<svg version="1.1" id="Yellow" xmlns="http://www.w3.org/2000/svg" xmlns:xlink="http://www.w3.org/1999/xlink" x="0px" y="0px"
	 viewBox="0 0 88 88" style="enable-background:new 0 0 88 88;" xml:space="preserve">
<style type="text/css">
	.st0{fill:#FBB70D;}
	.st1{fill:none;stroke:#4A5E75;stroke-width:1.2157;stroke-linejoin:round;stroke-miterlimit:10;}
	.st2{fill:#F8B900;}
</style>
<path class="st0" d="M74.93,86.97H13.07c-1.65,0-3-1.34-3-2.98V10.05h2v73.94c0,0.54,0.45,0.98,1,0.98h61.86c0.55,0,1-0.44,1-0.98
	V10.05h2v73.94C77.93,85.63,76.58,86.97,74.93,86.97z"/>
<path class="st1" d="M44,43.44"/>
<g>
	<g>
		<path class="st0" d="M72.62,61.07H15.1c-0.19,0-0.36-0.11-0.45-0.27l-3.11-6.1c-0.07-0.14-0.07-0.3-0.01-0.44l3-6.3l-2.99-5.66
			c-0.07-0.13-0.08-0.29-0.02-0.43l3.02-7.19l-3.01-6.11c-0.07-0.14-0.07-0.3,0-0.44l2.99-6.08l-2.98-5.43
			c-0.08-0.15-0.08-0.33,0-0.47l3.11-5.88c0.09-0.16,0.26-0.27,0.44-0.27h57.13c0.17,0,0.33,0.09,0.42,0.23l3.5,5.44
			c0.1,0.15,0.11,0.34,0.03,0.5l-3.19,6.3l3.18,5.86c0.08,0.14,0.08,0.31,0.01,0.45l-3.19,6.74l3.18,5.87
			c0.08,0.14,0.08,0.32,0.01,0.46l-3.19,6.3l3.18,5.86c0.08,0.14,0.08,0.31,0.01,0.46l-3.11,6.31
			C72.98,60.96,72.81,61.07,72.62,61.07z M15.4,60.07h56.9l2.86-5.8l-3.18-5.87c-0.08-0.14-0.08-0.32-0.01-0.46l3.19-6.3l-3.18-5.86
			c-0.08-0.14-0.08-0.31-0.01-0.45l3.19-6.74l-3.18-5.87c-0.08-0.14-0.08-0.32-0.01-0.46l3.17-6.27l-3.2-4.97H15.4l-2.84,5.37
			l2.98,5.42c0.08,0.14,0.08,0.32,0.01,0.46l-3,6.09l3,6.09c0.06,0.13,0.07,0.28,0.01,0.41l-3.02,7.18l3,5.67
			c0.07,0.14,0.08,0.31,0.01,0.45l-3,6.31L15.4,60.07z"/>
		<path class="st0" d="M75.73,16.88H11.99c-0.28,0-0.5-0.22-0.5-0.5s0.22-0.5,0.5-0.5h63.74c0.28,0,0.5,0.22,0.5,0.5
			S76,16.88,75.73,16.88z"/>
		<path class="st0" d="M72.42,22.76H14.71c-0.28,0-0.5-0.22-0.5-0.5s0.22-0.5,0.5-0.5h57.71c0.28,0,0.5,0.22,0.5,0.5
			S72.7,22.76,72.42,22.76z"/>
		<path class="st0" d="M76.02,29.13H12.28c-0.28,0-0.5-0.22-0.5-0.5s0.22-0.5,0.5-0.5h63.74c0.28,0,0.5,0.22,0.5,0.5
			S76.29,29.13,76.02,29.13z"/>
		<path class="st0" d="M72.71,35.49H15c-0.28,0-0.5-0.22-0.5-0.5s0.22-0.5,0.5-0.5h57.71c0.28,0,0.5,0.22,0.5,0.5
			S72.99,35.49,72.71,35.49z"/>
		<path class="st0" d="M75.73,42.27H11.99c-0.28,0-0.5-0.22-0.5-0.5s0.22-0.5,0.5-0.5h63.74c0.28,0,0.5,0.22,0.5,0.5
			S76,42.27,75.73,42.27z"/>
		<path class="st0" d="M72.42,48.64H15.1c-0.28,0-0.5-0.22-0.5-0.5s0.22-0.5,0.5-0.5h57.32c0.28,0,0.5,0.22,0.5,0.5
			S72.7,48.64,72.42,48.64z"/>
		<path class="st0" d="M76.02,55H12.28c-0.28,0-0.5-0.22-0.5-0.5S12,54,12.28,54h63.74c0.28,0,0.5,0.22,0.5,0.5S76.29,55,76.02,55z"
			/>
	</g>
</g>
<path class="st2" d="M83,11.05H5V0.97h78V11.05z M7,9.05h74V2.97H7V9.05z"/>
</svg>
