<?xml version="1.0" encoding="iso-8859-1"?>
<!-- Generator: Adobe Illustrator 25.0.0, SVG Export Plug-In . SVG Version: 6.00 Build 0)  -->
<svg version="1.1" id="Layer_1" xmlns="http://www.w3.org/2000/svg" xmlns:xlink="http://www.w3.org/1999/xlink" x="0px" y="0px"
	 viewBox="0 0 1920 1080" style="enable-background:new 0 0 1920 1080;" xml:space="preserve">
<g>
	<path d="M1176.49,149.412c-80.031,0-154.506,24.23-216.49,65.708c-61.994-41.478-136.459-65.708-216.49-65.708
		c-215.193,0-390.269,175.057-390.269,390.234c0,215.174,175.076,390.232,390.269,390.232c80.031,0,154.506-24.23,216.49-65.708
		c61.994,41.478,136.459,65.708,216.49,65.708c215.193,0,390.27-175.057,390.27-390.232
		C1566.759,324.469,1391.683,149.412,1176.49,149.412L1176.49,149.412z M1176.49,858.773c-116.211,0-218.111-62.439-273.919-155.513
		h41.013c19.637,0,35.552-15.916,35.552-35.552c0-19.627-15.916-35.552-35.552-35.552h-72.567
		c-4.39-14.463-7.786-29.34-10.102-44.59h139.562c19.627,0,35.552-15.916,35.552-35.552c0-19.627-15.925-35.552-35.552-35.552
		H858.166c1.093-15.174,3.268-30.061,6.426-44.578h78.992c19.637,0,35.552-15.925,35.552-35.552
		c0-19.637-15.916-35.552-35.552-35.552h-54.421c51.736-106.593,161.087-180.262,287.326-180.262
		c175.984,0,319.165,143.162,319.165,319.129C1495.655,715.611,1352.474,858.773,1176.49,858.773L1176.49,858.773z M1176.49,858.773
		"/>
</g>
</svg>
